module go-basic-programs

go 1.15

require (
	github.com/asaskevich/govalidator v0.0.0-20200907205600-7a23bdc65eef // indirect
	github.com/go-openapi/runtime v0.19.22 // indirect
	github.com/go-openapi/spec v0.19.9 // indirect
	github.com/go-openapi/validate v0.19.11 // indirect
	github.com/go-swagger/go-swagger v0.25.0 // indirect
	github.com/gorilla/handlers v1.5.1 // indirect
	github.com/kr/pretty v0.2.1 // indirect
	github.com/magiconair/properties v1.8.3 // indirect
	github.com/mailru/easyjson v0.7.6 // indirect
	github.com/mitchellh/mapstructure v1.3.3 // indirect
	github.com/pelletier/go-toml v1.8.1 // indirect
	github.com/spf13/afero v1.4.0 // indirect
	github.com/spf13/viper v1.7.1 // indirect
	go.mongodb.org/mongo-driver v1.4.1 // indirect
	golang.org/x/net v0.0.0-20200904194848-62affa334b73 // indirect
	golang.org/x/sys v0.0.0-20200917073148-efd3b9a0ff20 // indirect
	golang.org/x/tools v0.0.0-20200917050209-655488c8ae71 // indirect
	gopkg.in/ini.v1 v1.61.0 // indirect
)
